<?xml version="1.0" encoding="UTF-8" standalone="no"?>
<!DOCTYPE svg PUBLIC "-//W3C//DTD SVG 1.1//EN" "http://www.w3.org/Graphics/SVG/1.1/DTD/svg11.dtd">
<svg width="100%" height="100%" viewBox="0 0 25 25" version="1.1" xmlns="http://www.w3.org/2000/svg" xmlns:xlink="http://www.w3.org/1999/xlink" xml:space="preserve" xmlns:serif="http://www.serif.com/" style="fill-rule:evenodd;clip-rule:evenodd;stroke-linecap:round;stroke-linejoin:round;stroke-miterlimit:1.5;">
    <g transform="matrix(1,0,0,1,-209.012,-57.9059)">
        <g transform="matrix(0.0781448,0,0,0.0781448,160.224,36.9002)">
            <g transform="matrix(1,0,0,-1,354.002,849.102)">
                <circle cx="425.627" cy="424.989" r="151.143" style="fill:rgb(244,216,216);stroke:black;stroke-width:8.33px;"/>
            </g>
            <g transform="matrix(1,0,0,-1,354.002,843.795)">
                <path d="M405.762,412.354L368.61,412.354L425.627,298.32L482.644,412.354L445.492,412.354L445.492,541.043L405.762,541.043L405.762,412.354Z" style="fill:rgb(51,153,7);"/>
            </g>
        </g>
    </g>
</svg>
